# PRECAUTION: avoid production dependencies that aren't in development

-r base.txt

gunicorn==20.0.4  # https://github.com/benoitc/gunicorn
psycopg2==2.8.6  # https://github.com/psycopg/psycopg2
sentry-sdk==0.19.2  # https://github.com/getsentry/sentry-python
hiredis==1.1.0  # https://github.com/redis/hiredis-py

# Django
# ------------------------------------------------------------------------------
django-anymail==8.1  # https://github.com/anymail/django-anymail
